{
  "posPlugin": {
    "source": {
      "type": "local",
      "path": "E:\\gitlab\\cordova\\cordova-plugin\\android-cordova\\pos\\node_modules\\posplugin"
    },
    "is_top_level": true,
    "variables": {}
  }
}