{
  "prepare_queue": {
    "installed": [],
    "uninstalled": []
  },
  "config_munge": {
    "files": {
      "res/xml/config.xml": {
        "parents": {
          "/*": [
            {
              "xml": "<feature name=\"dspread_pos_plugin\"><param name=\"android-package\" value=\"org.apache.cordova.posPlugin.dspread_pos_plugin\" /></feature>",
              "count": 1
            }
          ]
        }
      },
      "AndroidManifest.xml": {
        "parents": {
          "/*": [
            {
              "xml": "<uses-permission android:name=\"android.permission.BLUETOOTH_CONNECT\" />",
              "count": 1
            },
            {
              "xml": "<uses-permission android:name=\"android.permission.BLUETOOTH_SCAN\" />",
              "count": 1
            },
            {
              "xml": "<uses-permission android:name=\"android.permission.BLUETOOTH_ADVERTISE\" />",
              "count": 1
            },
            {
              "xml": "<uses-permission android:name=\"android.permission.WAKE_LOCK\" />",
              "count": 1
            },
            {
              "xml": "<uses-permission android:name=\"android.permission.BLUETOOTH\" />",
              "count": 1
            },
            {
              "xml": "<uses-permission android:name=\"android.permission.BLUETOOTH_ADMIN\" />",
              "count": 1
            },
            {
              "xml": "<uses-permission android:name=\"android.permission.ACCESS_FINE_LOCATION\" />",
              "count": 1
            },
            {
              "xml": "<uses-permission android:name=\"android.permission.ACCESS_COARSE_LOCATION\" />",
              "count": 1
            },
            {
              "xml": "<uses-permission android:name=\"android.permission.INTERNET\" />",
              "count": 1
            },
            {
              "xml": "<uses-permission android:name=\"android.permission.ACCESS_NETWORK_STATE\" />",
              "count": 1
            },
            {
              "xml": "<uses-permission android:name=\"android.permission.MOUNT_UNMOUNT_FILESYSTEMS\" />",
              "count": 1
            },
            {
              "xml": "<uses-permission android:name=\"android.permission.WRITE_EXTERNAL_STORAGE\" />",
              "count": 1
            },
            {
              "xml": "<uses-permission android:name=\"android.permission.RECORD_AUDIO\" />",
              "count": 1
            },
            {
              "xml": "<uses-permission android:name=\"android.permission.MODIFY_AUDIO_SETTINGS\" />",
              "count": 1
            },
            {
              "xml": "<uses-permission android:name=\"android.permission.ACCESS_WIFI_STATE\" />",
              "count": 1
            },
            {
              "xml": "<uses-permission android:name=\"android.permission.INTERACT_ACROSS_USERS_FULL\" />",
              "count": 1
            },
            {
              "xml": "<uses-permission android:name=\"android.permission.INTERACT_ACROSS_USERS\" />",
              "count": 1
            },
            {
              "xml": "<uses-feature android:name=\"android.hardware.usb.host\" />",
              "count": 1
            }
          ]
        }
      }
    }
  },
  "installed_plugins": {
    "posPlugin": {
      "PACKAGE_NAME": "com.pos.demoui"
    }
  },
  "dependent_plugins": {},
  "modules": [
    {
      "id": "posPlugin.dspread_pos_plugin",
      "file": "plugins/posPlugin/www/dspread_pos_plugin.js",
      "pluginId": "posPlugin",
      "clobbers": [
        "cordova.plugins.dspread_pos_plugin"
      ]
    }
  ],
  "plugin_metadata": {
    "posPlugin": "1.2.4"
  }
}
